L1.T1,L2.T2,L3.T3,L4.T4,L5.T5,L6.T6,L7.T7,L8.T8,L9.T9:Allergy
L2.T2,L3.T3,L4.T4,L10.T5,L6.T6,L11.T7,L8.T8:Allergy
L12.T3,L4.T4,L5.T5,L6.T6,L7.T7,L14.T8,L15.T9:Allergy
L16.T4,L17.T5,L18.T7,L14.T8:Allergy
L3.T3,L10.T5,L19.T6,L9.T9:Allergy
L12.T3,L4.T4,L10.T5,L15.T9:Allergy
L16.T4,L17.T5,L19.T6,L7.T7,L8.T8:Allergy